<svg width="797" height="900" viewBox="0 0 797 900" fill="none" xmlns="http://www.w3.org/2000/svg">
<path d="M187 339.5C357 218.7 438.167 56.5 457.5 -9.5L645.5 -92.5C760.167 -77.8333 994.4 -40.7 1014 -9.5C1038.5 29.5 980 119.5 909 127C838 134.5 662.5 339.5 604 403C545.5 466.5 538 781 387 825C236 869 57.5 805.5 21 710.5C-15.5 615.5 -25.5 490.5 187 339.5Z" fill="#FF7200" fill-opacity="0.27"/>
<path d="M374.15 478.797C645.042 306.882 774.379 76.0481 805.186 -17.8792L1104.76 -136C1287.48 -115.127 1660.72 -62.2813 1691.96 -17.8792C1731 37.6233 1637.78 165.706 1524.64 176.38C1411.5 187.053 1131.85 478.797 1038.63 569.167C945.412 659.536 933.461 1107.11 692.846 1169.73C452.231 1232.35 167.795 1141.98 109.633 1006.78C51.471 871.584 35.5362 693.692 374.15 478.797Z" fill="#FF7200" fill-opacity="0.27"/>
</svg>
